{
    "dir": "data/sweetSpot_δε0.01_δt0",
    "rep": 500,
    "M": {"start":1,"stop":101,"step":2},
    "U": 10,
    "V": 3,
    "ε": {"start":-1.0,"stop":1.0,"step":0.5},
    "εₘ": {"start":-4.0,"stop":-2.0,"step":0.5},
    "t": 0.05,
    "δ": 0.01,
    "δε": 3.0,
    "δεₘ": 3.0,
    "δt": 0.0
}
